0001 	 01arq.cl                                
0001 	 acym.cl                                 
0001 	 aloricardo.cl                           
0001 	 apicechile.cl                           
0001 	 artelaminas.cl                          
0001 	 artesania.uc.cl                         
0001 	 atuitour.cl                             
0001 	 aventuracenter.cl                       
0001 	 beneficiario.ingresa.cl                 
0001 	 bombereando.cl                          
0001 	 casaslanco.cl                           
0001 	 ceas.cl                                 
0001 	 chanarcillo.cl                          
0001 	 chicago.craigslist.org                  
0001 	 chileescena.cl                          
0001 	 circuloastronomico.cl                   
0001 	 classroom.google.com                    
0001 	 cl.search.yahoo.com                     
0001 	 colegioamaliaerrazuriz.cl               
0001 	 colegioetievan.cl                       
0001 	 columbiachallenge.cl                    
0001 	 costaneraclub.cl                        
0001 	 cruzmar.cl                              
0001 	 diosasclub.cl                           
0001 	 dspuntaarenas.cl                        
0001 	 eduabierta.uchile.cl                    
0001 	 educacion2020.cl                        
0001 	 eladministrador.cl                      
0001 	 eltipografo.cl                          
0001 	 escueladeadministracion.uc.cl           
0001 	 especial.mineduc.cl                     
0001 	 fia.cl                                  
0001 	 fmat.cl                                 
0001 	 fondacio.cl                             
0001 	 frannerd.cl                             
0001 	 franquicia.cl                           
0001 	 fundacionsonrisas.cl                    
0001 	 geoatacama.cl                           
0001 	 globalservices.cl                       
0001 	 gramacom.cl                             
0001 	 ha.cl                                   
0001 	 hotelmarina.cl                          
0001 	 imblas.cl                               
0001 	 institutocatequistico.uc.cl             
0001 	 investigacion.uach.cl                   
0001 	 lachakra.cl                             
0001 	 lanacion.cl                             
0001 	 lared.cl                                
0001 	 latribuna.cl                            
0001 	 lesgemeaux.cl                           
0001 	 losandesonline.cl                       
0001 	 mavisos.cl                              
0001 	 medicina.uc.cl                          
0001 	 mibodega.cl                             
0001 	 mipagina.cl                             
0001 	 mismascotas.cl                          
0001 	 movistararena.cl                        
0001 	 nave13.ucv.cl                           
0001 	 oasisfm.cl                              
0001 	 ohsaladgarden.cl                        
0001 	 olca.cl                                 
0001 	 patinchile.cl                           
0001 	 pizzahut.cl                             
0001 	 planos.amarillas.cl                     
0001 	 playfm.cl                               
0001 	 prensa.presidencia.cl                   
0001 	 puntaarenas.cl                          
0001 	 pymemad.cl                              
0001 	 recorreaysen.cl                         
0001 	 redsalud.uc.cl                          
0001 	 rioitata.cl                             
0001 	 salfausados.cl                          
0001 	 seguridad.inp.cl                        
0001 	 senadorvirtual.cl                       
0001 	 sincasa.cl                              
0001 	 smarthold.cl                            
0001 	 soccer.yahoo.co.jp                      
0001 	 sonarfm.cl                              
0001 	 surmagico.cl                            
0001 	 tapel.cl                                
0001 	 teaconnection.cl                        
0001 	 thaebus.cl                              
0001 	 tiroalvuelo.cl                          
0001 	 ucampus.uchile.cl                       
0001 	 vu.mma.gob.cl                           
0001 	 www.acfcapital.cl                       
0001 	 www.achap.cl                            
0001 	 www.acquatiempo.cl                      
0001 	 www.adimark.cl                          
0001 	 www.adnradio.cl                         
0001 	 www.adochile.cl                         
0001 	 www.afc.cl                              
0001 	 www.agricultorestalca.cl                
0001 	 www.agrisol.cl                          
0001 	 www.aipchile.gob.cl                     
0001 	 www.airbnb.cl                           
0001 	 www.alcantara-alicante.cl               
0001 	 www.almetal.cl                          
0001 	 www.americainternet.cl                  
0001 	 www.anajnu.cl                           
0001 	 www.anasac.cl                           
0001 	 www.anclainn.cl                         
0001 	 www.andimar.cl                          
0001 	 www.apicenter.cl                        
0001 	 www.aprendeconenergia.cl                
0001 	 www.aquachile.cl                        
0001 	 www.armacero.cl                         
0001 	 www.arteculinario.cl                    
0001 	 www.artikos.cl                          
0001 	 www.arzobispadodeconcepcion.cl          
0001 	 www.asoch.cl                            
0001 	 www.asoex.cl                            
0001 	 www.australosorno.cl                    
0001 	 www.automotrizlascondes.cl              
0001 	 www.automovilclub.cl                    
0001 	 www.autopistacentral.cl                 
0001 	 www.bancafacil.cl                       
0001 	 www.banchilevida.cl                     
0001 	 www.bancoestado.cl                      
0001 	 www.bancofalabella.cl                   
0001 	 www.bancosecurity.cl                    
0001 	 www.bbvanetcash.cl                      
0001 	 www.becaschile.cl                       
0001 	 www.belzart.cl                          
0001 	 www.besalco.cl                          
0001 	 www.bibliotecaminsal.cl                 
0001 	 www.bicevida.cl                         
0001 	 www.boka2.cl                            
0001 	 www.bolsadeempleo.cl                    
0001 	 www.bunsa.cl                            
0001 	 www.cabilfrut.cl                        
0001 	 www.cajmetro.cl                         
0001 	 www.calimport.cl                        
0001 	 www.carabinerosdechile.cl               
0001 	 www.cardenalsilva.cl                    
0001 	 www.carrenovision.cl                    
0001 	 www.casamusa.cl                         
0001 	 www.casasilva.cl                        
0001 	 www.casaximena.cl                       
0001 	 www.ccbolsa.cl                          
0001 	 www.cdhuachipato.cl                     
0001 	 www.chilcoa.cl                          
0001 	 www.chileagenda.cl                      
0001 	 www.chilecompra.cl                      
0001 	 www.chiletransparente.cl                
0001 	 www.chilquinta.cl                       
0001 	 www.ciclonautas.cl                      
0001 	 www.cinemark.cl                         
0001 	 www.ciudadviva.cl                       
0001 	 www.clarin.com                          
0001 	 www.clarochile.cl                       
0001 	 www.clgranada.com                       
0001 	 www.clinicabiobio.cl                    
0001 	 www.clinicavalparaiso.cl                
0001 	 www.clinicavespucio.cl                  
0001 	 www.clubhipicoantofagasta.cl            
0001 	 www.clubpenguinisland.com               
0001 	 www.colegiostarosa.cl                   
0001 	 www.colegioterraustral.cl               
0001 	 www.columbiachile.cl                    
0001 	 www.comoaguaparachocolate.cl            
0001 	 www.conaf.cl                            
0001 	 www.concesionesmaritimas.cl             
0001 	 www.conservador.cl                      
0001 	 www.conservadorcurico.cl                
0001 	 www.coopelan.cl                         
0001 	 www.corsaber.cl                         
0001 	 www.craigslist.org                      
0001 	 www.cristalchile.cl                     
0001 	 www.dadino.cl                           
0001 	 www.dartel.cl                           
0001 	 www.destacados.cl                       
0001 	 www.diarioatacama.cl                    
0001 	 www.diarioeldia.cl                      
0001 	 www.diarioenaccion.cl                   
0001 	 www.dicoma.cl                           
0001 	 www.dimacofi.cl                         
0001 	 www.diplas.cl                           
0001 	 www.docentemas.cl                       
0001 	 www.duendeazul.cl                       
0001 	 www.easy.cl                             
0001 	 www.edelmag.cl                          
0001 	 www.elconquistadorfm.cl                 
0001 	 www.ellanquihue.cl                      
0001 	 www.elmostrador.cl                      
0001 	 www.elobservatodo.cl                    
0001 	 www.empresasotero.cl                    
0001 	 www.enlaces.cl                          
0001 	 www.ensenachile.cl                      
0001 	 www.escuelasabatica.cl                  
0001 	 www.esval.cl                            
0001 	 www.extranjeria.gob.cl                  
0001 	 www.faesin.cl                           
0001 	 www.fegosa.cl                           
0001 	 www.ferrolusac.cl                       
0001 	 www.firstrentacar.cl                    
0001 	 www.flosam.cl                           
0001 	 www.fundacioncristovive.cl              
0001 	 www.fundacionsofofa.cl                  
0001 	 www.fusat.cl                            
0001 	 www.galahotel.cl                        
0001 	 www.gasco.cl                            
0001 	 www.gassur.cl                           
0001 	 www.geoblast.cl                         
0001 	 www.geovirtual.cl                       
0001 	 www.glamorama.cl                        
0001 	 www.glasstech.cl                        
0001 	 www.goreaysen.cl                        
0001 	 www.goremagallanes.cl                   
0001 	 www.grafhika.cl                         
0001 	 www.grindermagazine.cl                  
0001 	 www.hidroaysen.cl                       
0001 	 www.hotelnicolas.cl                     
0001 	 www.hotelsanmartin.cl                   
0001 	 www.iansa.cl                            
0001 	 www.icafal.cl                           
0001 	 www.iglesia.cl                          
0001 	 www.ignaciofernandez.cl                 
0001 	 www.imactiva.cl                         
0001 	 www.imda.cl                             
0001 	 www.inconac.cl                          
0001 	 www.inemaule.cl                         
0001 	 www.inrpac.cl                           
0001 	 www.intersalud.cl                       
0001 	 www.iopa.cl                             
0001 	 www.iplaaraucana.cl                     
0001 	 www.isaprechuquicamata.cl               
0001 	 www.isaprefusat.cl                      
0001 	 www.isva.cl                             
0001 	 www.italmod.cl                          
0001 	 www.jac.cl                              
0001 	 www.karacter.cl                         
0001 	 www.kugar.cl                            
0001 	 www.labrin.cl                           
0001 	 www.lacampina.cl                        
0001 	 www.ladiscusion.cl                      
0001 	 www.laestrellachiloe.cl                 
0001 	 www.laforesta.cl                        
0001 	 www.lahora.cl                           
0001 	 www.lanalhuenoticias.cl                 
0001 	 www.laserena.cl                         
0001 	 www.legibilidadmu.cl                    
0001 	 www.libromar.cl                         
0001 	 www.limonada.cl                         
0001 	 www.lipigas.cl                          
0001 	 www.loteria.cl                          
0001 	 www.luval.cl                            
0001 	 www.madera21.cl                         
0001 	 www.marinadelsol.cl                     
0001 	 www.masvida.cl                          
0001 	 www.mattel.cl                           
0001 	 www.mediosregionales.cl                 
0001 	 www.mega.cl                             
0001 	 www.mercadolibre.cl                     
0001 	 www.merysattjoyas.cl                    
0001 	 www.mineraformas.cl                     
0001 	 www.minmineria.gob.cl                   
0001 	 www.minsal.cl                           
0001 	 www.morgan.cl                           
0001 	 www.movistar.cl                         
0001 	 www.mueblescasella.cl                   
0001 	 www.mundomasaje.cl                      
0001 	 www.municipalidaddevalparaiso.cl        
0001 	 www.napsis.cl                           
0001 	 www.nihonkaratedo.cl                    
0001 	 www.noriega.cl                          
0001 	 www.oarquitectos.cl                     
0001 	 www.obispadodevalparaiso.cl             
0001 	 www.ohani.cl                            
0001 	 www.openstreetmap.cl                    
0001 	 www.pabellon.cl                         
0001 	 www.pampinos.cl                         
0001 	 www.paula.cl                            
0001 	 www.planetahosting.cl                   
0001 	 www.planetasii.cl                       
0001 	 www.plataformaurbana.cl                 
0001 	 www.positivafm.cl                       
0001 	 www.preansa.cl                          
0001 	 www.prensafutbol.cl                     
0001 	 www.prettywoman.cl                      
0001 	 www.procaucho.cl                        
0001 	 www.propiedadesenalgarrobo.cl           
0001 	 www.pullman.cl                          
0001 	 www.quepasa.cl                          
0001 	 www.racchile.cl                         
0001 	 www.radioubb.cl                         
0001 	 www.radiovillafrancia.cl                
0001 	 www.raimapu.cl                          
0001 	 www.recasur.cl                          
0001 	 www.reclamos.cl                         
0001 	 www.restaurantetaipei.cl                
0001 	 www.revistaei.cl                        
0001 	 www.revistanos.cl                       
0001 	 www.revistapolis.cl                     
0001 	 www.rhona.cl                            
0001 	 www.riosan.cl                           
0001 	 www.rosaagustina.cl                     
0001 	 www.rosasexpress.cl                     
0001 	 www.sanpedro.cl                         
0001 	 www.santanderbanefe.cl                  
0001 	 www.santander.cl                        
0001 	 www.sebastianpinera.cl                  
0001 	 www.sepiensa.cl                         
0001 	 www.sernac.cl                           
0001 	 www.sernapesca.cl                       
0001 	 www.sernatur.cl                         
0001 	 www.servifacil.cl                       
0001 	 www.servimaq.cl                         
0001 	 www.serviumaule.cl                      
0001 	 www.smartienda.cl                       
0001 	 www.soberaniachile.cl                   
0001 	 www.socima.cl                           
0001 	 www.socovesa.cl                         
0001 	 www.sonami.cl                           
0001 	 www.sonorad.cl                          
0001 	 www.sotraser.cl                         
0001 	 www.spalgarrobo.cl                      
0001 	 www.ssccmanquehue.cl                    
0001 	 www.supersalud.gob.cl                   
0001 	 www.surlat.cl                           
0001 	 www.sustentable.cl                      
0001 	 www.tagler.cl                           
0001 	 www.teatrocaupolican.cl                 
0001 	 www.teatromunicipal.cl                  
0001 	 www.todobateria.cl                      
0001 	 www.todoclasico.cl                      
0001 	 www.todotelas.cl                        
0001 	 www.udelmar.cl                          
0001 	 www.uefa.com                            
0001 	 www.unimarc.cl                          
0001 	 www.upacifico.cl                        
0001 	 www.velaslatinoamerica2018.cl           
0001 	 www.vendomatica.cl                      
0001 	 www.viax.cl                             
0001 	 www.vicariasur.cl                       
0001 	 www.vidacamara.cl                       
0001 	 www.vidacel.cl                          
0001 	 www.vidaintegra.cl                      
0001 	 www.vidasecurity.cl                     
0001 	 www.webpay.cl                           
0001 	 www.worldcars.cl                        
0001 	 www.yapo.cl                             
0001 	 www.zacks.com                           
0002 	 agroprodex.cl                           
0002 	 atacamakozan.cl                         
0002 	 bonologroescolar.ministeriodesarrollosocial.gob.cl
0002 	 cartoonnetwork.cl                       
0002 	 claveunica.gob.cl                       
0002 	 es.wikipedia.org                        
0002 	 horadelcodigo.cl                        
0002 	 hotelalonsodeercilla.cl                 
0002 	 jaja.cl                                 
0002 	 janus-tv.senado.cl                      
0002 	 lickanahostal.cl                        
0002 	 ligamar.cl                              
0002 	 manquehuito.cl                          
0002 	 mundoenlinea.cl                         
0002 	 neumamerica.cl                          
0002 	 psicologia.uc.cl                        
0002 	 radioparaiso.cl                         
0002 	 rentanac.cl                             
0002 	 soloteatro.cl                           
0002 	 translate.google.cl                     
0002 	 userena.cl                              
0002 	 valledecolchagua.cl                     
0002 	 vallepack.cl                            
0002 	 www.abcconduccion.cl                    
0002 	 www.aerocord.cl                         
0002 	 www.almondale.cl                        
0002 	 www.aminerals.cl                        
0002 	 www.andesmountain.cl                    
0002 	 www.antena.cl                           
0002 	 www.armonia.cl                          
0002 	 www.arquimed.cl                         
0002 	 www.aschile.cl                          
0002 	 www.ayacara.cl                          
0002 	 www.balmacedartejoven.cl                
0002 	 www.beckercia.cl                        
0002 	 www.bluambientes.cl                     
0002 	 www.bmaj.cl                             
0002 	 www.booksandbits.cl                     
0002 	 www.candelle.cl                         
0002 	 www.choapa.cl                           
0002 	 www.clinicatabancura.cl                 
0002 	 www.cnachile.cl                         
0002 	 www.colegioaltamira.cl                  
0002 	 www.colegiodeenfermeras.cl              
0002 	 www.construmart.cl                      
0002 	 www.decoratta.cl                        
0002 	 www.denunciaseguro.cl                   
0002 	 www.digitalfm.cl                        
0002 	 www.economiaynegocios.cl                
0002 	 www.elestablo.cl                        
0002 	 www.elovallino.cl                       
0002 	 www.espacioriesco.cl                    
0002 	 www.euroinmobiliaria.cl                 
0002 	 www.factoringsecurity.cl                
0002 	 www.fundacionfuturo.cl                  
0002 	 www.galeria.chilebuses.cl               
0002 	 www.gruposaesa.cl                       
0002 	 www.grupovial.cl                        
0002 	 www.hotelalcala.cl                      
0002 	 www.ingresa.cl                          
0002 	 www.inia.cl                             
0002 	 www.inmobiliachile.cl                   
0002 	 www.jeafosale.cl                        
0002 	 www.ligaepilepsia.cl                    
0002 	 www.mampato.cl                          
0002 	 www.munivalpo.cl                        
0002 	 www.paginawebgratis.cl                  
0002 	 www.patt.cl                             
0002 	 www.profesorenlinea.cl                  
0002 	 www.puertocontainer.cl                  
0002 	 www.pullmanbus.cl                       
0002 	 www.puntajenacional.cl                  
0002 	 www.puntoclave.cl                       
0002 	 www.quesosarturito.cl                   
0002 	 www.radiorancagua.cl                    
0002 	 www.ricaaventura.cl                     
0002 	 www.ricardorodriguez.cl                 
0002 	 www.samsung.com                         
0002 	 www.santamartina.cl                     
0002 	 www.savory.cl                           
0002 	 www.sea.gob.cl                          
0002 	 www.snowboardchile.cl                   
0002 	 www.streetracing.cl                     
0002 	 www.tijuana.cl                          
0002 	 www.uantof.cl                           
0002 	 www.universiaempleo.cl                  
0002 	 www.vadell.cl                           
0002 	 www.watts.cl                            
0003 	 cristal.cl                              
0003 	 de.uefa.com                             
0003 	 sanpablochile.cl                        
0003 	 www.calvomackenna.cl                    
0003 	 www.coopercarab.cl                      
0003 	 www.hvacpartner.cl                      
0003 	 www.radio.usach.cl                      
0003 	 www.teatrodelpuente.cl                  
0003 	 www.tejasdechena.cl                     
0003 	 www.transportescucha.cl                 
0004 	 disanfra.cl                             
0004 	 skindustrial.cl                         
0004 	 www.convivenciaescolar.cl               
0004 	 www.elevair.cl                          
0004 	 www.makuza.cl                           
0004 	 www.servipal.cl                         
0005 	 agropesca.cl                            
0005 	 www.antropologiavisual.cl               
0005 	 www.ayrhoteles.cl                       
0005 	 www.rematesdrago.cl                     
0006 	 colorvegetal.cl                         
0006 	 rzescapes.cl                            
0006 	 www.puntabrown.cl                       
0007 	 www.naturaloils.cl                      
0009 	 solyluna.cl                             
0011 	 www.facebook.com                        
0012 	 www.drabrahamcohen.cl                   
0013 	 www.hotelalbamar.cl                     
0015 	 www.mktpropiedades.cl                   
0016 	 bombasdiana.cl                          
0016 	 www.aviacion.cl                         
0017 	 www.lacteosoctay.cl                     
0017 	 www.urbanclomx.com                      
0018 	 atacamahostel.cl                        
0018 	 www.pernosirua.cl                       
0019 	 www.bautizosymas.cl                     
0019 	 www.texas.cl                            
0020 	 radiocolocolo.cl                        
0020 	 www.turismoayekan.cl                    
0021 	 www.die.usach.cl                        
0022 	 cervecerianacional.cl                   
0022 	 www.educarenpobreza.cl                  
0024 	 www.lajacinta.cl                        
0025 	 sochicar.cl                             
0025 	 www.fundacionarauco.cl                  
0026 	 www.ichasfalto.cl                       
0026 	 www.schoenstattmedia.cl                 
0030 	 www.operacatedral.cl                    
0047 	 cordillerahotel.cl                      
0256 	 www.inrafrigo.cl                        
0268 	 hotellafuente.cl                        
0270 	 www.audioplus.cl                        
0272 	 www.elaromo.cl                          
0278 	 costavarua.cl                           
0279 	 radiosancarlos.cl                       
0279 	 www.novared.cl                          
0280 	 puastatuajes.cl                         
0305 	 www.casadelarte.cl                      
